-------------------------------------------------------------------------------
Test set: org.springframework.samples.petclinic.service.ClinicServiceSpringDataJpaTests
-------------------------------------------------------------------------------
Tests run: 11, Failures: 0, Errors: 0, Skipped: 0, Time elapsed: 17.496 sec
